#TAG,NAME IN REPO (or git url),PURPOSE (should be a verb phrase to sound right while installing)
,yay,"Yet another yogurt. Pacman wrapper and AUR helper written in go."
,neovim,"Fork of Vim aiming to improve user experience, plugins, and GUIs."
,emacs,"The extensible, customizable, self-documenting real-time display editor."
,nwg-look,"GTK3 settings editor adapted to work on wayland."
,xterm,"X Terminal Emulator - (Backup terminal)."
,fish,"Fish shell terminal"
,git,"The fast distributed version control system."
,curl,"Command line tool and library for transferring data with URLs."
,wget,"Network utility to retrieve files from the Web."
,alacritty,"A cross-platform, GPU-accelerated terminal emulator."
,rofi,"A window switcher, application launcher and dmenu replacement."
,gdisk,"Needed for zfs linux."
,fastfetch,"Like neofetch, but much faster because written in c"
,network-manager-applet,"Applet to see and edit internet connections."
,syncthing,"Open Source Continuous Replication / Cluster Synchronization Thing."
,cronie,"Daemon that runs specified programs at scheduled times and related tools."
,shadowsocks-libev,"A lightweight secured socks5 proxy for embedded devices and low end boxes."
,bc,"An arbitrary precision calculator language."
,libnotify,"Library for sending desktop notifications."
,dunst,"Customizable and lightweight notification-daemon."
,gcr,"A library for bits of crypto UI and parsing."
,w3m,"Text-based Web browser as well as pager."
,feh,"Fast and light imlib2-based image viewer."
,vimiv,"Image viewer with vim-like keybindings."
,radeontop,"View GPU utilization for total activity percent and individual blocks."
,xfce4-settings,"Settings manager of the Xfce desktop."
,gvfs-mtp,"Virtual filesystem implementation for GIO (MTP backend; Android, media player)."
,flameshot,"Powerful yet simple to use screenshot software."
,tumbler,"D-Bus service for applications to request thumbnails."
,gnupg,"Needed for pam-gnupg."
,seahorse,"GNOME application for managing PGP keys."
,dosfstools,"DOS filesystem utilities."
,exfat-utils,"Utilities for exFAT file system."
,ntfs-3g,"NTFS filesystem driver and utilities."
,binutils,"A set of programs to assemble and manipulate binary and object files."
,make,"GNU make utility to maintain groups of programs."
,xdg-user-dirs,"Manage user directories like ~/Desktop and ~/Music."
,autoconf,"Need so pam-gnupg will build and install."
,automake,"Need so pam-gnupg will build and install."
,gcc,"The GNU Compiler Collection - C and C++ frontends."
,pkg-config,"Package compiler and linker metadata toolkit."
,fakeroot,"Already in base-devel."
,keepassxc,"Simple GUI password manager."
,yubikey-manager,"Python library and command line tool for configuring a YubiKey."
,yubikey-personalization-gui,"Yubico YubiKey Personalization GUI."
,gvfs,"Virtual filesystem implementation for GIO."
,socat,"Multipurpose relay."
,xcape,"Configure modifier keys to act as other keys when pressed and released on their own."
,xsel,"XSel is a command-line program for getting and setting the contents of the X selection."
,zathura,"Minimalistic document viewer."
,zathura-pdf-mupdf,"PDF support for Zathura (MuPDF backend) (Supports PDF, ePub, and OpenXPS)."
,poppler,"PDF rendering library based on xpdf 3.0."
,mediainfo,"Supplies technical and tag information about media files (CLI interface)."
,atool,"A script for managing file archives of various types."
,fzf,"Command-line fuzzy finder."
,nextcloud-client,"Nextcloud desktop client."
,unclutter,"A small program for hiding the mouse cursor."
,stow,"Manage installation of multiple softwares in the same directory tree."
,lm_sensors,"Collection of user space tools for general SMBus access and hardware monitoring."
,htop,"Interactive process viewer."
,rsync,"A fast and versatile file copying tool for remote and local files."
,bleachbit,"Deletes unneeded files to free disk space and maintain privacy."
,odt2txt,"Extracts the text out of OpenDocument Texts."
,veracrypt,"Disk encryption with strong security based on TrueCrypt."
,wacomtablet,"GUI for Wacom Linux drivers that supports different button/pen layout profiles."
,pass,"Stores, retrieves, generates, and synchronizes passwords securely."
,pass-otp,"A pass extension for managing one-time-password (OTP) tokens."
,zbar,"Application and library for reading bar codes from various sources."
,pwgen,"Password generator for creating easily memorable passwords."
,geoip,"Non-DNS IP-to-country resolver C library & utils."
,cmake,"A cross-platform open-source make system."
,patch,"A utility to apply patch files to original sources."
#,cups,"Printing utility."
#,sane,"Scanning utility."
#,calibre,"Ebook management application."
#,youtube-dl,""
#,torbrowser-launcher,"Securely and easily download, verify, install, and launch Tor Browser in Linux."

# XORG & XMONAD
#,xmonad,""
#,xmonad-contrib,""
#,xmobar,""
#,picom,"A lightweight compositor for X11"
#,xorg-xsetroot,""
#,xorg-xinit,""
#,xorg-xwininfo,""
# A,redshift-minimal,""
#A,libxft-bgra,"Fix for emoticons in DWM."
#,trayer,"Lightweight GTK2-based systray for UNIX desktop."
#,xclip,"Command line interface to the X11 clipboard."
#,xdotool,"Command-line X11 automation tool."
#,ueberzug,""
#,arandr,"Provide a simple visual front end for XRandR 1.2."
#A,hsetroot,"Tool which allows you to compose wallpapers ("root pixmaps") for X."

# THUNAR
#,thunar,""
#,thunar-archive-plugin,""
#,thunar-volman,"Automatic management of removeable devices in Thunar."
# A,engrampa-thunar-gtk2,""
#,file-roller,"Create and modify archives."
#,unrar,""
#,unzip,""

# HYPRLAND
A,rofi-pass-ydotool-git,"Bash script to handle pass storages in a convenient way. Ydotool branch, which works under Wayland."
,wlsunset,"Day/night gamma adjustments for Wayland compositors."

# EMAIL
A,mu,"Maildir indexer/searcher and Emacs client (mu4e)."
,msmtp,"A mini smtp client."
,isync,"IMAP and MailDir mailbox synchronizer."
,abook,"Text-based addressbook designed for use with Mutt."

# QUTEBROWSER
,python-adblock,"Brave adblocking package for Qutebrowser."
,pdfjs,"PDF reader in javascript."
A,chromium-widevine,"A browser plugin designed for the viewing of premium video content."


# BLUETOOTH
#,bluez,"Daemons for the bluetooth protocol stack."
#,bluez-libs,"Deprecated libraries for the bluetooth protocol stack."
#,bluez-utils,"Development and debugging utilities for the bluetooth protocol stack."

# SECURITY
#,clamav,""
#A,python-fangfrisch,"Freshclam like utility that allows downloading unofficial virus definition files."
#,openvpn,""
#,ufw,"Uncomplicated firewall."

# CHAT APPS
,telegram-desktop,"Official Telegram Desktop client."
,discord,"All-in-one voice and text chat for gamers."

# GAMING
,steam,""
A,protontricks-git,"A simple wrapper that does winetricks things for Proton enabled games."
A,wine-git,"A compatibility layer for running Windows programs."
,lutris,"Open gaming platform."
,lug-helper,"Star Citizen's Linux Users Group Helper script."
#,lib32-nvidia-utils,"NVIDIA drivers utilities (32-bit), needed for Steam."
#A,m64py,""
#,mupen64plus,""
#,mupen64plus-qt,""
#,xonotic,""
#A,openttd,"An angine for running Transport Tycoon Deluxe."

# WORK APPLICATIONS
,libreoffice-fresh,""
,hunspell-en_AU,"Spellchecker that I use in libreoffice."
,gimp,""
,inkscape,""
,darktable,""
#,krita,""
#,blender,""
A,djv,"Professional media review software for VFX, animation, and film production."
#A,slowmovideo-git,"Video slow motion effect via interpolation."
#A,gimp-plugin-resynthesizer-git,"Suite of gimp plugins for texture synthesis (like heal-selection). Git-Version."
#,obs-studio,""

# MUSIC PRODUCTION
#,ardour,"Professional-grade digital audio workstation."
#,surge,"An Open Source Digital Synthesizer."
#,calf,"Free audio VST package."
#A,vital-synth,"Powerful wavetable synthesizer with realtime modulation feedback."
#A,zrythm,""
#A,eq10q,"EQ VST."

# AUDIO
,realtime-privileges,"Realtime privileges for users."
,alsa-plugins,"Additional ALSA plugins."
,pipewire,"Low-latency audio/video router and processor."
,pipewire-alsa,"Low-latency audio/video router and processor - ALSA configuration."
,pipewire-jack,"Low-latency audio/video router and processor - JACK support."
,pipewire-pulse,"Low-latency audio/video router and processor - PulseAudio replacement."
,wireplumber,"Session / policy manager implementation for PipeWire."
,carla,"Audio Plugin Host."
,cava,"Console-based Audio Visualizer for Alsa."
A,ncpamixer,"ncurses PulseAudio Mixer."
,mpd,"Flexible, powerful, server-side application for playing music."
,mpc,"Minimalist command line interface to MPD."
,mpv,"A cross-platform media player."
,ncmpcpp,"Featureful ncurses based MPD client inspired by ncmpc."
,nicotine+,"Soulseek music-sharing client, written in python."

# TORRENTS:
,qbittorrent,""
#,transmission-cli,""
#A,tremc," Remote cli for Transmission daemon."

# VIRT-MANAGER
#,qemu,"Needed for virt-manager."
#,libvirt,"Needed for virt-manager."
#,virt-manager,"Virtual Machine."
#,ebtables,"Needed for virt-manager."
#,lxsession,"Needed for virt-manager."

# FRONTS
,ttf-joypixels,""
,ttf-nerd-fonts-symbols,""
,ttf-inconsolata,""
,ttf-linux-libertine,""
,ttf-fira-code,""
,ttf-liberation,"Arial font alternative needed for Steam."
,powerline-fonts,""
,powerline,""
,ttf-opensans,""
,noto-fonts,""
,noto-fonts-emoji,""
A,ttf-symbola,""

#A,razergenie,"Qt application for configuring your Razer devices."
#A,openrazer-meta,"Meta package for installing all required openrazer packages."
A,freetube-bin,"An open source desktop YouTube player built with privacy in mind."
A,pomod-git,"The pomodoro daemon."
A,qutebrowser-git,"A keyboard-driven, vim-like browser on PyQT5."
A,librewolf-bin,"Community-maintained fork of Firefox, focused on privacy, security and freedom."
A,pam-gnupg-git,"Unlock GnuPG keys on login."
A,rofi-pass-git,"Bash script to handle pass storages in a convenient way"
A,vimv-git,"Batch-rename files using Vim."
A,urlview,"A curses URL parser for text files."
A,simple-mtpfs,"Allows mounting of phones."
A,mlocate,"File finder, merging locate/updatedb implementation."
A,lbry-desktop-bin,"Desktop app for the lbry-network - a decentralized, user-controlled content marketplace and YouTube alternative."
A,sc-controller-git,"User-mode driver and GTK3 based GUI for Steam Controller."
A,wootility-appimage,"Utility for configuring Wooting keyboards (binary AppImage version)."
A,fisher,"Fish plugin manager."
#G,https://gitlab.com/rhysday/dmenu.git,"runs commands and provides a UI for selection."
#G,https://gitlab.com/rhysday/st.git,"is my custom build of suckless's terminal emulator."
